%YAML 1.1
%TAG !u! tag:unity3d.com,2011:
--- !u!74 &7400000
AnimationClip:
  m_ObjectHideFlags: 0
  m_CorrespondingSourceObject: {fileID: 0}
  m_PrefabInstance: {fileID: 0}
  m_PrefabAsset: {fileID: 0}
  m_Name: New Animation
  serializedVersion: 6
  m_Legacy: 0
  m_Compressed: 0
  m_UseHighQualityCurve: 1
  m_RotationCurves: []
  m_CompressedRotationCurves: []
  m_EulerCurves: []
  m_PositionCurves: []
  m_ScaleCurves: []
  m_FloatCurves: []
  m_PPtrCurves:
  - curve:
    - time: 0
      value: {fileID: -8105560202311982947, guid: 58112a0969a142845b8a03c478463bf7,
        type: 3}
    - time: 0.083333336
      value: {fileID: 6004246453574341425, guid: 58112a0969a142845b8a03c478463bf7,
        type: 3}
    - time: 0.16666667
      value: {fileID: -6931400272290298348, guid: 58112a0969a142845b8a03c478463bf7,
        type: 3}
    - time: 0.25
      value: {fileID: -190768770967579635, guid: 58112a0969a142845b8a03c478463bf7,
        type: 3}
    - time: 0.33333334
      value: {fileID: -8380717354252690839, guid: 58112a0969a142845b8a03c478463bf7,
        type: 3}
    - time: 0.41666666
      value: {fileID: 8799301134570436102, guid: 58112a0969a142845b8a03c478463bf7,
        type: 3}
    - time: 0.5
      value: {fileID: 1761046200499368084, guid: 58112a0969a142845b8a03c478463bf7,
        type: 3}
    - time: 0.5833333
      value: {fileID: 7037491742420195075, guid: 58112a0969a142845b8a03c478463bf7,
        type: 3}
    - time: 0.6666667
      value: {fileID: 3124090762863060102, guid: 58112a0969a142845b8a03c478463bf7,
        type: 3}
    - time: 0.75
      value: {fileID: -5115337406901343682, guid: 58112a0969a142845b8a03c478463bf7,
        type: 3}
    - time: 0.8333333
      value: {fileID: 6316668372097886032, guid: 58112a0969a142845b8a03c478463bf7,
        type: 3}
    - time: 0.9166667
      value: {fileID: 924418762217591757, guid: 58112a0969a142845b8a03c478463bf7,
        type: 3}
    - time: 1
      value: {fileID: -233549916652994903, guid: 58112a0969a142845b8a03c478463bf7,
        type: 3}
    - time: 1.0833334
      value: {fileID: -7415237113034372892, guid: 58112a0969a142845b8a03c478463bf7,
        type: 3}
    attribute: m_Sprite
    path: 
    classID: 212
    script: {fileID: 0}
  m_SampleRate: 12
  m_WrapMode: 0
  m_Bounds:
    m_Center: {x: 0, y: 0, z: 0}
    m_Extent: {x: 0, y: 0, z: 0}
  m_ClipBindingConstant:
    genericBindings:
    - serializedVersion: 2
      path: 0
      attribute: 0
      script: {fileID: 0}
      typeID: 212
      customType: 23
      isPPtrCurve: 1
    pptrCurveMapping:
    - {fileID: -8105560202311982947, guid: 58112a0969a142845b8a03c478463bf7, type: 3}
    - {fileID: 6004246453574341425, guid: 58112a0969a142845b8a03c478463bf7, type: 3}
    - {fileID: -6931400272290298348, guid: 58112a0969a142845b8a03c478463bf7, type: 3}
    - {fileID: -190768770967579635, guid: 58112a0969a142845b8a03c478463bf7, type: 3}
    - {fileID: -8380717354252690839, guid: 58112a0969a142845b8a03c478463bf7, type: 3}
    - {fileID: 8799301134570436102, guid: 58112a0969a142845b8a03c478463bf7, type: 3}
    - {fileID: 1761046200499368084, guid: 58112a0969a142845b8a03c478463bf7, type: 3}
    - {fileID: 7037491742420195075, guid: 58112a0969a142845b8a03c478463bf7, type: 3}
    - {fileID: 3124090762863060102, guid: 58112a0969a142845b8a03c478463bf7, type: 3}
    - {fileID: -5115337406901343682, guid: 58112a0969a142845b8a03c478463bf7, type: 3}
    - {fileID: 6316668372097886032, guid: 58112a0969a142845b8a03c478463bf7, type: 3}
    - {fileID: 924418762217591757, guid: 58112a0969a142845b8a03c478463bf7, type: 3}
    - {fileID: -233549916652994903, guid: 58112a0969a142845b8a03c478463bf7, type: 3}
    - {fileID: -7415237113034372892, guid: 58112a0969a142845b8a03c478463bf7, type: 3}
  m_AnimationClipSettings:
    serializedVersion: 2
    m_AdditiveReferencePoseClip: {fileID: 0}
    m_AdditiveReferencePoseTime: 0
    m_StartTime: 0
    m_StopTime: 1.1666667
    m_OrientationOffsetY: 0
    m_Level: 0
    m_CycleOffset: 0
    m_HasAdditiveReferencePose: 0
    m_LoopTime: 1
    m_LoopBlend: 0
    m_LoopBlendOrientation: 0
    m_LoopBlendPositionY: 0
    m_LoopBlendPositionXZ: 0
    m_KeepOriginalOrientation: 0
    m_KeepOriginalPositionY: 1
    m_KeepOriginalPositionXZ: 0
    m_HeightFromFeet: 0
    m_Mirror: 0
  m_EditorCurves: []
  m_EulerEditorCurves: []
  m_HasGenericRootTransform: 0
  m_HasMotionFloatCurves: 0
  m_Events: []
