%YAML 1.1
%TAG !u! tag:unity3d.com,2011:
--- !u!1 &8376028999989356234
GameObject:
  m_ObjectHideFlags: 0
  m_CorrespondingSourceObject: {fileID: 0}
  m_PrefabInstance: {fileID: 0}
  m_PrefabAsset: {fileID: 0}
  serializedVersion: 6
  m_Component:
  - component: {fileID: 6867462851850950196}
  - component: {fileID: 6467543598618217666}
  - component: {fileID: 6186336725888124409}
  - component: {fileID: 8082498790386182036}
  - component: {fileID: 6745820885557491541}
  m_Layer: 0
  m_Name: Bomb
  m_TagString: Bomb
  m_Icon: {fileID: 0}
  m_NavMeshLayer: 0
  m_StaticEditorFlags: 0
  m_IsActive: 1
--- !u!4 &6867462851850950196
Transform:
  m_ObjectHideFlags: 0
  m_CorrespondingSourceObject: {fileID: 0}
  m_PrefabInstance: {fileID: 0}
  m_PrefabAsset: {fileID: 0}
  m_GameObject: {fileID: 8376028999989356234}
  m_LocalRotation: {x: 0, y: 0, z: 0, w: 1}
  m_LocalPosition: {x: -0.001, y: 2.57, z: 0}
  m_LocalScale: {x: 1.238715, y: 1.238715, z: 0}
  m_Children:
  - {fileID: 5203089091675876952}
  m_Father: {fileID: 0}
  m_RootOrder: 0
  m_LocalEulerAnglesHint: {x: 0, y: 0, z: 0}
--- !u!212 &6467543598618217666
SpriteRenderer:
  m_ObjectHideFlags: 0
  m_CorrespondingSourceObject: {fileID: 0}
  m_PrefabInstance: {fileID: 0}
  m_PrefabAsset: {fileID: 0}
  m_GameObject: {fileID: 8376028999989356234}
  m_Enabled: 1
  m_CastShadows: 0
  m_ReceiveShadows: 0
  m_DynamicOccludee: 1
  m_MotionVectors: 1
  m_LightProbeUsage: 1
  m_ReflectionProbeUsage: 1
  m_RenderingLayerMask: 1
  m_RendererPriority: 0
  m_Materials:
  - {fileID: 10754, guid: 0000000000000000f000000000000000, type: 0}
  m_StaticBatchInfo:
    firstSubMesh: 0
    subMeshCount: 0
  m_StaticBatchRoot: {fileID: 0}
  m_ProbeAnchor: {fileID: 0}
  m_LightProbeVolumeOverride: {fileID: 0}
  m_ScaleInLightmap: 1
  m_ReceiveGI: 1
  m_PreserveUVs: 0
  m_IgnoreNormalsForChartDetection: 0
  m_ImportantGI: 0
  m_StitchLightmapSeams: 1
  m_SelectedEditorRenderState: 0
  m_MinimumChartSize: 4
  m_AutoUVMaxDistance: 0.5
  m_AutoUVMaxAngle: 89
  m_LightmapParameters: {fileID: 0}
  m_SortingLayerID: -1761013707
  m_SortingLayer: 3
  m_SortingOrder: 1
  m_Sprite: {fileID: 21300000, guid: cac977c8bcfdbcc47b8f2dc29cfd7371, type: 3}
  m_Color: {r: 1, g: 1, b: 1, a: 1}
  m_FlipX: 0
  m_FlipY: 0
  m_DrawMode: 0
  m_Size: {x: 1, y: 1}
  m_AdaptiveModeThreshold: 0.5
  m_SpriteTileMode: 0
  m_WasSpriteAssigned: 1
  m_MaskInteraction: 0
  m_SpriteSortPoint: 0
--- !u!95 &6186336725888124409
Animator:
  serializedVersion: 3
  m_ObjectHideFlags: 0
  m_CorrespondingSourceObject: {fileID: 0}
  m_PrefabInstance: {fileID: 0}
  m_PrefabAsset: {fileID: 0}
  m_GameObject: {fileID: 8376028999989356234}
  m_Enabled: 1
  m_Avatar: {fileID: 0}
  m_Controller: {fileID: 9100000, guid: 1450c0b2af9a25c4ea02f1d47f1381ea, type: 2}
  m_CullingMode: 0
  m_UpdateMode: 0
  m_ApplyRootMotion: 0
  m_LinearVelocityBlending: 0
  m_WarningMessage: 
  m_HasTransformHierarchy: 1
  m_AllowConstantClipSamplingOptimization: 1
  m_KeepAnimatorControllerStateOnDisable: 0
--- !u!58 &8082498790386182036
CircleCollider2D:
  m_ObjectHideFlags: 0
  m_CorrespondingSourceObject: {fileID: 0}
  m_PrefabInstance: {fileID: 0}
  m_PrefabAsset: {fileID: 0}
  m_GameObject: {fileID: 8376028999989356234}
  m_Enabled: 1
  m_Density: 1
  m_Material: {fileID: 0}
  m_IsTrigger: 1
  m_UsedByEffector: 0
  m_UsedByComposite: 0
  m_Offset: {x: 0, y: 0}
  serializedVersion: 2
  m_Radius: 1.93
--- !u!82 &6745820885557491541
AudioSource:
  m_ObjectHideFlags: 0
  m_CorrespondingSourceObject: {fileID: 0}
  m_PrefabInstance: {fileID: 0}
  m_PrefabAsset: {fileID: 0}
  m_GameObject: {fileID: 8376028999989356234}
  m_Enabled: 1
  serializedVersion: 4
  OutputAudioMixerGroup: {fileID: 0}
  m_audioClip: {fileID: 8300000, guid: d7a9460b511b8244db8ae56ebfcb5257, type: 3}
  m_PlayOnAwake: 1
  m_Volume: 1
  m_Pitch: 1
  Loop: 0
  Mute: 0
  Spatialize: 0
  SpatializePostEffects: 0
  Priority: 128
  DopplerLevel: 1
  MinDistance: 1
  MaxDistance: 500
  Pan2D: 0
  rolloffMode: 0
  BypassEffects: 0
  BypassListenerEffects: 0
  BypassReverbZones: 0
  rolloffCustomCurve:
    serializedVersion: 2
    m_Curve:
    - serializedVersion: 3
      time: 0
      value: 1
      inSlope: 0
      outSlope: 0
      tangentMode: 0
      weightedMode: 0
      inWeight: 0.33333334
      outWeight: 0.33333334
    - serializedVersion: 3
      time: 1
      value: 0
      inSlope: 0
      outSlope: 0
      tangentMode: 0
      weightedMode: 0
      inWeight: 0.33333334
      outWeight: 0.33333334
    m_PreInfinity: 2
    m_PostInfinity: 2
    m_RotationOrder: 4
  panLevelCustomCurve:
    serializedVersion: 2
    m_Curve:
    - serializedVersion: 3
      time: 0
      value: 0
      inSlope: 0
      outSlope: 0
      tangentMode: 0
      weightedMode: 0
      inWeight: 0.33333334
      outWeight: 0.33333334
    m_PreInfinity: 2
    m_PostInfinity: 2
    m_RotationOrder: 4
  spreadCustomCurve:
    serializedVersion: 2
    m_Curve:
    - serializedVersion: 3
      time: 0
      value: 0
      inSlope: 0
      outSlope: 0
      tangentMode: 0
      weightedMode: 0
      inWeight: 0.33333334
      outWeight: 0.33333334
    m_PreInfinity: 2
    m_PostInfinity: 2
    m_RotationOrder: 4
  reverbZoneMixCustomCurve:
    serializedVersion: 2
    m_Curve:
    - serializedVersion: 3
      time: 0
      value: 1
      inSlope: 0
      outSlope: 0
      tangentMode: 0
      weightedMode: 0
      inWeight: 0.33333334
      outWeight: 0.33333334
    m_PreInfinity: 2
    m_PostInfinity: 2
    m_RotationOrder: 4
--- !u!1001 &5203089091675735976
PrefabInstance:
  m_ObjectHideFlags: 0
  serializedVersion: 2
  m_Modification:
    m_TransformParent: {fileID: 6867462851850950196}
    m_Modifications:
    - target: {fileID: 180128, guid: 6586ff0f14125534cae2f5d8f04b7871, type: 3}
      propertyPath: m_Name
      value: FX_Fireworks_Yellow_Small
      objectReference: {fileID: 0}
    - target: {fileID: 403952, guid: 6586ff0f14125534cae2f5d8f04b7871, type: 3}
      propertyPath: m_LocalPosition.x
      value: -0.055338293
      objectReference: {fileID: 0}
    - target: {fileID: 403952, guid: 6586ff0f14125534cae2f5d8f04b7871, type: 3}
      propertyPath: m_LocalPosition.y
      value: -0.079269886
      objectReference: {fileID: 0}
    - target: {fileID: 403952, guid: 6586ff0f14125534cae2f5d8f04b7871, type: 3}
      propertyPath: m_LocalPosition.z
      value: 0
      objectReference: {fileID: 0}
    - target: {fileID: 403952, guid: 6586ff0f14125534cae2f5d8f04b7871, type: 3}
      propertyPath: m_LocalRotation.x
      value: -0
      objectReference: {fileID: 0}
    - target: {fileID: 403952, guid: 6586ff0f14125534cae2f5d8f04b7871, type: 3}
      propertyPath: m_LocalRotation.y
      value: -0
      objectReference: {fileID: 0}
    - target: {fileID: 403952, guid: 6586ff0f14125534cae2f5d8f04b7871, type: 3}
      propertyPath: m_LocalRotation.z
      value: -0
      objectReference: {fileID: 0}
    - target: {fileID: 403952, guid: 6586ff0f14125534cae2f5d8f04b7871, type: 3}
      propertyPath: m_LocalRotation.w
      value: 1
      objectReference: {fileID: 0}
    - target: {fileID: 403952, guid: 6586ff0f14125534cae2f5d8f04b7871, type: 3}
      propertyPath: m_RootOrder
      value: 0
      objectReference: {fileID: 0}
    - target: {fileID: 403952, guid: 6586ff0f14125534cae2f5d8f04b7871, type: 3}
      propertyPath: m_LocalEulerAnglesHint.x
      value: 0
      objectReference: {fileID: 0}
    - target: {fileID: 403952, guid: 6586ff0f14125534cae2f5d8f04b7871, type: 3}
      propertyPath: m_LocalEulerAnglesHint.y
      value: 0
      objectReference: {fileID: 0}
    - target: {fileID: 403952, guid: 6586ff0f14125534cae2f5d8f04b7871, type: 3}
      propertyPath: m_LocalEulerAnglesHint.z
      value: 0
      objectReference: {fileID: 0}
    - target: {fileID: 403952, guid: 6586ff0f14125534cae2f5d8f04b7871, type: 3}
      propertyPath: m_LocalScale.x
      value: 0.6666667
      objectReference: {fileID: 0}
    - target: {fileID: 403952, guid: 6586ff0f14125534cae2f5d8f04b7871, type: 3}
      propertyPath: m_LocalScale.y
      value: 0.6666667
      objectReference: {fileID: 0}
    - target: {fileID: 403952, guid: 6586ff0f14125534cae2f5d8f04b7871, type: 3}
      propertyPath: m_LocalScale.z
      value: 0
      objectReference: {fileID: 0}
    - target: {fileID: 19860484, guid: 6586ff0f14125534cae2f5d8f04b7871, type: 3}
      propertyPath: lengthInSec
      value: 0.3
      objectReference: {fileID: 0}
    - target: {fileID: 19860484, guid: 6586ff0f14125534cae2f5d8f04b7871, type: 3}
      propertyPath: simulationSpeed
      value: 0.97
      objectReference: {fileID: 0}
    - target: {fileID: 19860484, guid: 6586ff0f14125534cae2f5d8f04b7871, type: 3}
      propertyPath: startDelay.scalar
      value: 3
      objectReference: {fileID: 0}
    - target: {fileID: 19860484, guid: 6586ff0f14125534cae2f5d8f04b7871, type: 3}
      propertyPath: InitialModule.startSpeed.scalar
      value: 13.3
      objectReference: {fileID: 0}
    - target: {fileID: 19860484, guid: 6586ff0f14125534cae2f5d8f04b7871, type: 3}
      propertyPath: InitialModule.startColor.minMaxState
      value: 2
      objectReference: {fileID: 0}
    - target: {fileID: 19860484, guid: 6586ff0f14125534cae2f5d8f04b7871, type: 3}
      propertyPath: InitialModule.startColor.maxColor.g
      value: 0.9626852
      objectReference: {fileID: 0}
    - target: {fileID: 19860484, guid: 6586ff0f14125534cae2f5d8f04b7871, type: 3}
      propertyPath: InitialModule.startColor.maxColor.b
      value: 0
      objectReference: {fileID: 0}
    - target: {fileID: 19904564, guid: 6586ff0f14125534cae2f5d8f04b7871, type: 3}
      propertyPath: m_Materials.Array.data[0]
      value: 
      objectReference: {fileID: 10306, guid: 0000000000000000f000000000000000, type: 0}
    - target: {fileID: 19904564, guid: 6586ff0f14125534cae2f5d8f04b7871, type: 3}
      propertyPath: m_SortingLayerID
      value: -1761013707
      objectReference: {fileID: 0}
    - target: {fileID: 19904564, guid: 6586ff0f14125534cae2f5d8f04b7871, type: 3}
      propertyPath: m_SortingLayer
      value: 3
      objectReference: {fileID: 0}
    - target: {fileID: 19904564, guid: 6586ff0f14125534cae2f5d8f04b7871, type: 3}
      propertyPath: m_SortingOrder
      value: 52
      objectReference: {fileID: 0}
    m_RemovedComponents: []
  m_SourcePrefab: {fileID: 100100000, guid: 6586ff0f14125534cae2f5d8f04b7871, type: 3}
--- !u!4 &5203089091675876952 stripped
Transform:
  m_CorrespondingSourceObject: {fileID: 403952, guid: 6586ff0f14125534cae2f5d8f04b7871,
    type: 3}
  m_PrefabInstance: {fileID: 5203089091675735976}
  m_PrefabAsset: {fileID: 0}
